{
	"info": {
		"_postman_id": "85df2564-de0d-4b6b-89d6-059ff159c968",
		"name": "Bills",
		"schema": "https://schema.getpostman.com/json/collection/v2.1.0/collection.json",
		"_exporter_id": "13419300",
		"_collection_link": "https://www.postman.com/bigcapital/workspace/bigcapital-api/collection/12067169-85df2564-de0d-4b6b-89d6-059ff159c968?action=share&source=collection_link&creator=13419300"
	},
	"item": [
		{
			"name": "Create Bill",
			"request": {
				"method": "POST",
				"header": [
					{
						"key": "x-access-token",
						"value": "{{token}}",
						"type": "text"
					},
					{
						"key": "organization-id",
						"value": "{{organization_id}}",
						"type": "text"
					}
				],
				"body": {
					"mode": "raw",
					"raw": "{\n    \"vendor_id\": 3,\n    \"bill_date\": \"2000-03-03\",\n    \"due_date\": \"2050-01-01\",\n    \"bill_number\": \"B2-A442444s1\",\n    \"delivered\": true,\n    \"open\": true,\n    \"reference_no\": \"1223\", \n    \"exchange_rate\": 4.5,\n    // \"project_id\": 1,\n    \"entries\": [\n        {\n            \"index\": 1,\n            \"item_id\": 1001,\n            \"quantity\": 1,\n            \"rate\": 2000,\n            \"description\": \"It is aaaasda...\"\n        }\n    ]\n}",
					"options": {
						"raw": {
							"language": "json"
						}
					}
				},
				"url": {
					"raw": "{{base}}/purchases/bills",
					"host": [
						"{{base}}"
					],
					"path": [
						"purchases",
						"bills"
					]
				}
			},
			"response": []
		},
		{
			"name": "Mark Bill as Open",
			"request": {
				"method": "POST",
				"header": [],
				"url": {
					"raw": "{{base}}/purcahses/bills/{{bill_id}}/open",
					"host": [
						"{{base}}"
					],
					"path": [
						"purcahses",
						"bills",
						"{{bill_id}}",
						"open"
					]
				}
			},
			"response": []
		},
		{
			"name": "Edit Bill",
			"request": {
				"method": "POST",
				"header": [],
				"body": {
					"mode": "raw",
					"raw": "{\n    \"vendor_id\": 3,\n    \"bill_date\": \"2000-03-03\",\n    \"due_date\": \"2050-01-01\",\n    \"bill_number\": \"B2-A442444s1\",\n    \"delivered\": true,\n    \"open\": true,\n    \"reference_no\": \"1223\",\n    \"exchange_rate\": 4.5,\n    // \"project_id\": 1,\n    \"entries\": [\n        {\n            \"index\": 1,\n            \"item_id\": 1001,\n            \"quantity\": 1,\n            \"rate\": 2000,\n            \"description\": \"It is aaaasda...\"\n        }\n    ]\n}",
					"options": {
						"raw": {
							"language": "json"
						}
					}
				},
				"url": {
					"raw": "{{base}}/purcahses/bills",
					"host": [
						"{{base}}"
					],
					"path": [
						"purcahses",
						"bills"
					]
				}
			},
			"response": []
		},
		{
			"name": "Retrieve Bill",
			"request": {
				"method": "GET",
				"header": [
					{
						"key": "x-access-token",
						"value": "{{token}}",
						"type": "text"
					},
					{
						"key": "organization-id",
						"value": "{{organization_id}}",
						"type": "text"
					}
				],
				"url": {
					"raw": "{{base}}/purcahses/bills/{{bill_id}}",
					"host": [
						"{{base}}"
					],
					"path": [
						"purcahses",
						"bills",
						"{{bill_id}}"
					]
				}
			},
			"response": []
		},
		{
			"name": "Retrieve Bills",
			"request": {
				"method": "GET",
				"header": [
					{
						"key": "x-access-token",
						"value": "{{token}}",
						"type": "text"
					},
					{
						"key": "organization-id",
						"value": "{{organization_id}}",
						"type": "text"
					}
				],
				"url": {
					"raw": "{{base}}/purchases/bills",
					"host": [
						"{{base}}"
					],
					"path": [
						"purchases",
						"bills"
					]
				}
			},
			"response": []
		},
		{
			"name": "Retrieve Bill Payment Transactions",
			"request": {
				"method": "GET",
				"header": [],
				"url": {
					"raw": "{{base}}/purcahses/bills/{{bill_id}}/payment-transactions",
					"host": [
						"{{base}}"
					],
					"path": [
						"purcahses",
						"bills",
						"{{bill_id}}",
						"payment-transactions"
					]
				}
			},
			"response": []
		},
		{
			"name": "Retrieve the Due Bills",
			"request": {
				"method": "GET",
				"header": [
					{
						"key": "x-access-token",
						"value": "{{token}}",
						"type": "text"
					},
					{
						"key": "organization-id",
						"value": "{{organization_id}}",
						"type": "text"
					}
				],
				"url": {
					"raw": "{{base}}/purchases/bills/due",
					"host": [
						"{{base}}"
					],
					"path": [
						"purchases",
						"bills",
						"due"
					]
				}
			},
			"response": []
		}
	],
	"variable": [
		{
			"key": "bill_id",
			"value": "1"
		}
	]
}