{
	"info": {
		"_postman_id": "0df4c3f0-b9ee-47d1-83e8-683eef56eeff",
		"name": "Projects [WIP]",
		"schema": "https://schema.getpostman.com/json/collection/v2.1.0/collection.json",
		"_exporter_id": "13419300",
		"_collection_link": "https://www.postman.com/bigcapital/workspace/bigcapital-api/collection/12067169-0df4c3f0-b9ee-47d1-83e8-683eef56eeff?action=share&source=collection_link&creator=13419300"
	},
	"item": [
		{
			"name": "Projects",
			"item": [
				{
					"name": "Create a New Project",
					"request": {
						"method": "POST",
						"header": [],
						"url": {
							"raw": "{{base}}/projects",
							"host": [
								"{{base}}"
							],
							"path": [
								"projects"
							]
						}
					},
					"response": []
				},
				{
					"name": "Change a Project Status",
					"request": {
						"method": "POST",
						"header": [],
						"url": {
							"raw": "{{base}}/projects/1/status",
							"host": [
								"{{base}}"
							],
							"path": [
								"projects",
								"1",
								"status"
							]
						}
					},
					"response": []
				},
				{
					"name": "Edit Project",
					"request": {
						"method": "POST",
						"header": [],
						"url": {
							"raw": "{{base}}/projects/1/status",
							"host": [
								"{{base}}"
							],
							"path": [
								"projects",
								"1",
								"status"
							]
						}
					},
					"response": []
				},
				{
					"name": "Delete Project",
					"request": {
						"method": "DELETE",
						"header": [],
						"url": {
							"raw": "{{base}}/projects/1",
							"host": [
								"{{base}}"
							],
							"path": [
								"projects",
								"1"
							]
						}
					},
					"response": []
				},
				{
					"name": "Retrieve a Specific Project",
					"request": {
						"method": "GET",
						"header": [],
						"url": {
							"raw": "{{base}}/projects/1",
							"host": [
								"{{base}}"
							],
							"path": [
								"projects",
								"1"
							]
						}
					},
					"response": []
				},
				{
					"name": "Retrieve a Project Billable Entries",
					"request": {
						"method": "GET",
						"header": [],
						"url": {
							"raw": "{{base}}/projects/1/billable/entries",
							"host": [
								"{{base}}"
							],
							"path": [
								"projects",
								"1",
								"billable",
								"entries"
							]
						}
					},
					"response": []
				},
				{
					"name": "Retrieve Projects",
					"request": {
						"method": "GET",
						"header": [],
						"url": {
							"raw": "{{base}}/projects",
							"host": [
								"{{base}}"
							],
							"path": [
								"projects"
							]
						}
					},
					"response": []
				}
			]
		},
		{
			"name": "Projects Times",
			"item": [
				{
					"name": "Create Time Entry Associated to Specific Task",
					"request": {
						"method": "POST",
						"header": [],
						"body": {
							"mode": "raw",
							"raw": "{\n\t\"description\": \"Prepared foundations\",\n\t\"duration\": 12,\n\t\"date\": \"2022-02-02\"\n}",
							"options": {
								"raw": {
									"language": "json"
								}
							}
						},
						"url": {
							"raw": "{{base}}/projects/tasks/1/times",
							"host": [
								"{{base}}"
							],
							"path": [
								"projects",
								"tasks",
								"1",
								"times"
							]
						}
					},
					"response": []
				},
				{
					"name": "Edit Task",
					"request": {
						"method": "POST",
						"header": [],
						"body": {
							"mode": "raw",
							"raw": "{\n\t\"description\": \"2222\",\n\t\"duration\": 123,\n\t\"date\": \"2022-02-02\"\n}",
							"options": {
								"raw": {
									"language": "json"
								}
							}
						},
						"url": {
							"raw": "{{base}}/projects/tasks/times/5",
							"host": [
								"{{base}}"
							],
							"path": [
								"projects",
								"tasks",
								"times",
								"5"
							]
						}
					},
					"response": []
				},
				{
					"name": "Get Task Time Entry Details",
					"protocolProfileBehavior": {
						"disableBodyPruning": true
					},
					"request": {
						"method": "GET",
						"header": [],
						"body": {
							"mode": "raw",
							"raw": "{\n\t\"description\": \"2222\",\n\t\"duration\": 123,\n\t\"date\": \"2022-02-02\"\n}",
							"options": {
								"raw": {
									"language": "json"
								}
							}
						},
						"url": {
							"raw": "{{base}}/projects/2/times",
							"host": [
								"{{base}}"
							],
							"path": [
								"projects",
								"2",
								"times"
							]
						}
					},
					"response": []
				},
				{
					"name": "Get Time Entries of Specific Project",
					"protocolProfileBehavior": {
						"disableBodyPruning": true
					},
					"request": {
						"method": "GET",
						"header": [],
						"body": {
							"mode": "raw",
							"raw": "{\n\t\"description\": \"2222\",\n\t\"duration\": 123,\n\t\"date\": \"2022-02-02\"\n}",
							"options": {
								"raw": {
									"language": "json"
								}
							}
						},
						"url": {
							"raw": "{{base}}/projects/2/times",
							"host": [
								"{{base}}"
							],
							"path": [
								"projects",
								"2",
								"times"
							]
						}
					},
					"response": []
				},
				{
					"name": "Delete Task Entry",
					"request": {
						"method": "DELETE",
						"header": [],
						"body": {
							"mode": "raw",
							"raw": "{\n\t\"description\": \"2222\",\n\t\"duration\": 123,\n\t\"date\": \"2022-02-02\"\n}",
							"options": {
								"raw": {
									"language": "json"
								}
							}
						},
						"url": {
							"raw": "{{base}}/projects/times/4",
							"host": [
								"{{base}}"
							],
							"path": [
								"projects",
								"times",
								"4"
							]
						}
					},
					"response": []
				}
			]
		},
		{
			"name": "Projects Tasks",
			"item": [
				{
					"name": "Create Task Associated to Project",
					"request": {
						"method": "POST",
						"header": []
					},
					"response": []
				},
				{
					"name": "Edit Task",
					"request": {
						"method": "POST",
						"header": []
					},
					"response": []
				},
				{
					"name": "Get Task",
					"request": {
						"method": "GET",
						"header": []
					},
					"response": []
				},
				{
					"name": "Get Tasks",
					"request": {
						"method": "GET",
						"header": []
					},
					"response": []
				},
				{
					"name": "Delete Task",
					"request": {
						"method": "DELETE",
						"header": []
					},
					"response": []
				}
			]
		}
	]
}