{
	"info": {
		"_postman_id": "52173a55-7e6c-4637-a525-677153746125",
		"name": "Sales Receipts",
		"schema": "https://schema.getpostman.com/json/collection/v2.1.0/collection.json",
		"_exporter_id": "13419300",
		"_collection_link": "https://www.postman.com/bigcapital/workspace/bigcapital-api/collection/12067169-52173a55-7e6c-4637-a525-677153746125?action=share&source=collection_link&creator=13419300"
	},
	"item": [
		{
			"name": "Listing Sales Receipts",
			"request": {
				"method": "GET",
				"header": [
					{
						"key": "x-access-token",
						"value": "{{token}}",
						"type": "text"
					},
					{
						"key": "organization-id",
						"value": "{{organization_id}}",
						"type": "text"
					}
				],
				"url": {
					"raw": "{{base}}/sales/receipts",
					"host": [
						"{{base}}"
					],
					"path": [
						"sales",
						"receipts"
					]
				}
			},
			"response": []
		},
		{
			"name": "Create Sale Receipt",
			"request": {
				"method": "POST",
				"header": [
					{
						"key": "x-access-token",
						"value": "{{token}}",
						"type": "text"
					},
					{
						"key": "organization-id",
						"value": "{{organization_id}}",
						"type": "text"
					}
				],
				"body": {
					"mode": "raw",
					"raw": "{\n    \"customer_id\": 1,\n    \"deposit_account_id\": 1000,\n    \"receipt_date\": \"2022-02-02\",\n    \"reference_no\": \"123\",\n    \"receipt_no\": \"ASD\",\n    \"delivered\": false,\n    \"branch_id\": 1,\n    \"warehouse_id\": 1,\n    \"entries\": [\n        {\n            \"index\": 1,\n            \"item_id\": 1001,\n            \"quantity\": 1,\n            \"rate\": 2000,\n            \"description\": \"asdfsadf\"\n        }\n    ]\n}",
					"options": {
						"raw": {
							"language": "json"
						}
					}
				},
				"url": {
					"raw": "{{base}}/sales/receipts",
					"host": [
						"{{base}}"
					],
					"path": [
						"sales",
						"receipts"
					]
				}
			},
			"response": []
		},
		{
			"name": "Delete Sale Receipt",
			"request": {
				"method": "DELETE",
				"header": [
					{
						"key": "x-access-token",
						"value": "{{token}}",
						"type": "text"
					},
					{
						"key": "organization-id",
						"value": "{{organization_id}}",
						"type": "text"
					}
				],
				"url": {
					"raw": "{{base_url}}/sales/receipts/{{sale_receipt_id}}",
					"host": [
						"{{base_url}}"
					],
					"path": [
						"sales",
						"receipts",
						"{{sale_receipt_id}}"
					]
				}
			},
			"response": []
		},
		{
			"name": "Retrieve Sale Receipt",
			"request": {
				"method": "GET",
				"header": [
					{
						"key": "x-access-token",
						"value": "{{token}}",
						"type": "text"
					},
					{
						"key": "organization-id",
						"value": "{{organization_id}}",
						"type": "text"
					}
				],
				"url": {
					"raw": "{{base}}/sales/receipts/{{sale_receipt_id}}",
					"host": [
						"{{base}}"
					],
					"path": [
						"sales",
						"receipts",
						"{{sale_receipt_id}}"
					]
				}
			},
			"response": []
		},
		{
			"name": "Retrieve Sale Receipt PDF",
			"request": {
				"method": "GET",
				"header": [
					{
						"key": "x-access-token",
						"value": "{{token}}",
						"type": "text"
					},
					{
						"key": "organization-id",
						"value": "{{organization_id}}",
						"type": "text"
					},
					{
						"key": "accept",
						"value": "application/pdf",
						"type": "text"
					}
				],
				"url": {
					"raw": "{{base}}/sales/receipts/{{sale_receipt_id}}",
					"host": [
						"{{base}}"
					],
					"path": [
						"sales",
						"receipts",
						"{{sale_receipt_id}}"
					]
				}
			},
			"response": []
		},
		{
			"name": "Retrieve Sale Receipts",
			"request": {
				"method": "GET",
				"header": [
					{
						"key": "x-access-token",
						"value": "{{token}}",
						"type": "text"
					},
					{
						"key": "organization-id",
						"value": "{{organization_id}}",
						"type": "text"
					}
				],
				"url": {
					"raw": "{{base}}/sales/receipts/{{sale_receipt_id}}",
					"host": [
						"{{base}}"
					],
					"path": [
						"sales",
						"receipts",
						"{{sale_receipt_id}}"
					]
				}
			},
			"response": []
		},
		{
			"name": "Close Sale Receipt",
			"request": {
				"method": "POST",
				"header": [
					{
						"key": "x-access-token",
						"value": "{{token}}",
						"type": "text"
					},
					{
						"key": "organization-id",
						"value": "{{organization_id}}",
						"type": "text"
					}
				],
				"url": {
					"raw": "{{base_url}}/sales/receipts/{{sale_receipt_id}}/close",
					"host": [
						"{{base_url}}"
					],
					"path": [
						"sales",
						"receipts",
						"{{sale_receipt_id}}",
						"close"
					]
				}
			},
			"response": []
		}
	],
	"variable": [
		{
			"key": "sale_receipt_id",
			"value": "1"
		}
	]
}