{
	"info": {
		"_postman_id": "03c8e89f-ee30-4c66-81b3-8687dcf8d8c7",
		"name": "Tax Rates",
		"schema": "https://schema.getpostman.com/json/collection/v2.1.0/collection.json",
		"_exporter_id": "13419300",
		"_collection_link": "https://www.postman.com/bigcapital/workspace/bigcapital-api/collection/12067169-03c8e89f-ee30-4c66-81b3-8687dcf8d8c7?action=share&source=collection_link&creator=13419300"
	},
	"item": [
		{
			"name": "New Tax Rate",
			"request": {
				"method": "POST",
				"header": [
					{
						"key": "x-access-token",
						"value": "{{token}}",
						"type": "text"
					},
					{
						"key": "organization-id",
						"value": "{{organization_id}}",
						"type": "text"
					}
				],
				"body": {
					"mode": "formdata",
					"formdata": []
				},
				"url": {
					"raw": "{{base_url}}/tax-rates",
					"host": [
						"{{base_url}}"
					],
					"path": [
						"tax-rates"
					]
				}
			},
			"response": []
		},
		{
			"name": "Edit Tax Rate",
			"request": {
				"method": "POST",
				"header": [],
				"url": {
					"raw": "{{base_url}}/tax-rates/{{tax_rate_id}}",
					"host": [
						"{{base_url}}"
					],
					"path": [
						"tax-rates",
						"{{tax_rate_id}}"
					]
				}
			},
			"response": []
		},
		{
			"name": "Activate Tax Rate",
			"request": {
				"method": "POST",
				"header": [],
				"url": {
					"raw": "{{base_url}}/tax-rates/{{tax_rate_id}}/active",
					"host": [
						"{{base_url}}"
					],
					"path": [
						"tax-rates",
						"{{tax_rate_id}}",
						"active"
					]
				}
			},
			"response": []
		},
		{
			"name": "Inactivate Tax Rate",
			"request": {
				"method": "POST",
				"header": [],
				"url": {
					"raw": "{{base_url}}/tax-rates/{{tax_rate_id}}/active",
					"host": [
						"{{base_url}}"
					],
					"path": [
						"tax-rates",
						"{{tax_rate_id}}",
						"active"
					]
				}
			},
			"response": []
		},
		{
			"name": "Delete Tax Rate",
			"request": {
				"method": "DELETE",
				"header": [],
				"url": {
					"raw": "{{base_url}}/tax-rates/{{tax_rate_id}}",
					"host": [
						"{{base_url}}"
					],
					"path": [
						"tax-rates",
						"{{tax_rate_id}}"
					]
				}
			},
			"response": []
		},
		{
			"name": "Retrieve Tax Rate",
			"request": {
				"method": "GET",
				"header": [],
				"url": {
					"raw": "{{base_url}}/tax-rates/{{tax_rate_id}}",
					"host": [
						"{{base_url}}"
					],
					"path": [
						"tax-rates",
						"{{tax_rate_id}}"
					]
				}
			},
			"response": []
		},
		{
			"name": "Retrieve Tax Rates",
			"request": {
				"method": "GET",
				"header": [
					{
						"key": "x-access-token",
						"value": "{{token}}",
						"type": "text"
					},
					{
						"key": "organization-id",
						"value": "{{organization_id}}",
						"type": "text"
					}
				],
				"url": {
					"raw": "{{base_url}}/tax-rates",
					"host": [
						"{{base_url}}"
					],
					"path": [
						"tax-rates"
					]
				}
			},
			"response": []
		}
	]
}